<?xml version="1.0" encoding="UTF-8" standalone="no"?>
<svg
   xmlns:dc="http://purl.org/dc/elements/1.1/"
   xmlns:cc="http://creativecommons.org/ns#"
   xmlns:rdf="http://www.w3.org/1999/02/22-rdf-syntax-ns#"
   xmlns:svg="http://www.w3.org/2000/svg"
   xmlns="http://www.w3.org/2000/svg"
   xmlns:sodipodi="http://sodipodi.sourceforge.net/DTD/sodipodi-0.dtd"
   xmlns:inkscape="http://www.inkscape.org/namespaces/inkscape"
   sodipodi:docname="elements-f05.svg"
   inkscape:version="1.0beta1 (a4ee55bc41, 2019-11-15)"
   sodipodi:version="0.32"
   id="svg2096"
   viewBox="0 0 300 100"
   height="100"
   width="300"
   version="1.1">
  <defs
     id="defs3" />
  <sodipodi:namedview
     inkscape:window-maximized="1"
     inkscape:window-y="27"
     inkscape:window-x="54"
     inkscape:window-height="1016"
     inkscape:window-width="1866"
     inkscape:guide-bbox="true"
     showguides="true"
     units="px"
     showgrid="false"
     inkscape:document-rotation="0"
     inkscape:current-layer="layer1"
     inkscape:document-units="px"
     inkscape:cy="50"
     inkscape:cx="160"
     inkscape:zoom="1.4"
     inkscape:pageshadow="2"
     inkscape:pageopacity="0.0"
     borderopacity="1.0"
     bordercolor="#666666"
     pagecolor="#ffffff"
     id="base"
     inkscape:lockguides="true" />
  <metadata
     id="metadata4">
    <rdf:RDF>
      <cc:Work
         rdf:about="">
        <dc:format>image/svg+xml</dc:format>
        <dc:type
           rdf:resource="http://purl.org/dc/dcmitype/StillImage" />
        <dc:title />
      </cc:Work>
    </rdf:RDF>
  </metadata>
  <g
     id="layer1"
     inkscape:groupmode="layer"
     inkscape:label="Layer 1">
    <rect
       y="0.24452494"
       x="0.2445485"
       height="99.124901"
       width="299.51016"
       id="rect1991"
       style="fill:none;fill-rule:evenodd;stroke:#000000;stroke-width:0.489097" />
    <rect
       y="3.8604941"
       x="28.245491"
       height="89.246323"
       width="98.737427"
       id="rect2044"
       style="fill:#000000;fill-opacity:1;fill-rule:evenodd;stroke:none;stroke-width:0.785196" />
    <path
       style="fill:#000000;fill-opacity:1;fill-rule:evenodd;stroke:none;stroke-width:1.51492"
       d="m 265.31918,47.926827 c 0,22.433002 -18.18555,40.618555 -40.61856,40.618555 -22.433,0 -40.61854,-18.185553 -40.61854,-40.618555 0,-22.433002 18.18554,-40.6185555 40.61854,-40.6185555 22.43301,0 40.61856,18.1855535 40.61856,40.6185555 z"
       id="path2606"
       inkscape:connector-curvature="0" />
    <path
       style="fill:#ffffff;fill-opacity:1;fill-rule:evenodd;stroke:none;stroke-width:1.51492"
       d="m 118.4036,47.926827 c 0,22.433002 -18.18555,40.618555 -40.618558,40.618555 -22.433002,0 -40.61854,-18.185553 -40.61854,-40.618555 0,-22.433002 18.185538,-40.6185555 40.61854,-40.6185555 22.433008,0 40.618558,18.1855535 40.618558,40.6185555 z"
       id="path2607"
       inkscape:connector-curvature="0" />
  </g>
</svg>
