<?xml version="1.0" encoding="UTF-8" standalone="no"?>
<svg
   xmlns:dc="http://purl.org/dc/elements/1.1/"
   xmlns:cc="http://creativecommons.org/ns#"
   xmlns:rdf="http://www.w3.org/1999/02/22-rdf-syntax-ns#"
   xmlns:svg="http://www.w3.org/2000/svg"
   xmlns="http://www.w3.org/2000/svg"
   xmlns:sodipodi="http://sodipodi.sourceforge.net/DTD/sodipodi-0.dtd"
   xmlns:inkscape="http://www.inkscape.org/namespaces/inkscape"
   sodipodi:docname="advanced-f08.svg"
   inkscape:version="1.0beta1 (c8cd966, 2019-11-15)"
   sodipodi:version="0.32"
   id="svg1992"
   viewBox="0 0 300 211"
   height="211"
   width="300"
   inkscape:output_extension="org.inkscape.output.svg.inkscape"
   version="1.1">
  <defs
     id="defs3" />
  <sodipodi:namedview
     inkscape:window-maximized="1"
     inkscape:window-y="27"
     inkscape:window-x="54"
     inkscape:window-height="1016"
     inkscape:window-width="1866"
     inkscape:guide-bbox="true"
     showguides="true"
     units="px"
     showgrid="false"
     inkscape:document-rotation="0"
     inkscape:current-layer="layer1"
     inkscape:document-units="px"
     inkscape:cy="79.076412"
     inkscape:cx="225.69045"
     inkscape:zoom="2.8"
     inkscape:pageshadow="2"
     inkscape:pageopacity="0.0"
     borderopacity="1.0"
     bordercolor="#666666"
     pagecolor="#ffffff"
     id="base"
     inkscape:lockguides="true" />
  <metadata
     id="metadata4">
    <rdf:RDF>
      <cc:Work
         rdf:about="">
        <dc:format>image/svg+xml</dc:format>
        <dc:type
           rdf:resource="http://purl.org/dc/dcmitype/StillImage" />
        <dc:title />
      </cc:Work>
    </rdf:RDF>
  </metadata>
  <g
     id="layer1"
     inkscape:groupmode="layer"
     inkscape:label="Layer 1">
    <text
       id="text1463"
       y="4.2369075"
       x="150.05299"
       style="font-style:normal;font-weight:normal;line-height:0%;font-family:'Liberation Sans',Arial,sans-serif;text-align:center;writing-mode:lr-tb;text-anchor:middle;fill:#000000;fill-opacity:1;stroke:none;stroke-width:3pt;stroke-linecap:butt;stroke-linejoin:miter;stroke-opacity:1"
       xml:space="preserve"><tspan
         id="tspan1464"
         sodipodi:role="line"
         y="4.2369075"
         x="150.05299"
         style="font-size:6px;line-height:1.1;text-align:center;text-anchor:middle">Original shapes</tspan></text>
    <text
       id="text1468"
       y="75.103027"
       x="87.519615"
       style="font-style:normal;font-weight:normal;line-height:0%;font-family:'Liberation Sans',Arial,sans-serif;text-align:center;writing-mode:lr-tb;text-anchor:middle;fill:#000000;fill-opacity:1;stroke:none;stroke-width:3pt;stroke-linecap:butt;stroke-linejoin:miter;stroke-opacity:1"
       xml:space="preserve"><tspan
         id="tspan1469"
         sodipodi:role="line"
         y="75.103027"
         x="87.519615"
         style="font-size:6px;line-height:1.1;text-align:center;text-anchor:middle">Union</tspan><tspan
         sodipodi:role="line"
         y="81.236847"
         x="87.519615"
         style="font-size:6px;line-height:1.1;text-align:center;text-anchor:middle"
         id="tspan588">(Ctrl++)</tspan></text>
    <text
       id="text1471"
       y="75.103027"
       x="149.67059"
       style="font-style:normal;font-weight:normal;line-height:0%;font-family:'Liberation Sans',Arial,sans-serif;text-align:center;writing-mode:lr-tb;text-anchor:middle;fill:#000000;fill-opacity:1;stroke:none;stroke-width:3pt;stroke-linecap:butt;stroke-linejoin:miter;stroke-opacity:1"
       xml:space="preserve"><tspan
         id="tspan1472"
         sodipodi:role="line"
         y="75.103027"
         x="149.67059"
         style="font-size:6px;line-height:1.1;text-align:center;text-anchor:middle">Difference (Ctrl+-)</tspan><tspan
         sodipodi:role="line"
         y="81.236847"
         x="149.67059"
         style="font-size:6px;line-height:1.1;text-align:center;text-anchor:middle"
         id="tspan586">(bottom minus top)</tspan></text>
    <text
       id="text1476"
       y="75.103027"
       x="220.44482"
       style="font-style:normal;font-weight:normal;line-height:0%;font-family:'Liberation Sans',Arial,sans-serif;text-align:center;writing-mode:lr-tb;text-anchor:middle;fill:#000000;fill-opacity:1;stroke:none;stroke-width:3pt;stroke-linecap:butt;stroke-linejoin:miter;stroke-opacity:1"
       xml:space="preserve"><tspan
         id="tspan1477"
         sodipodi:role="line"
         y="75.103027"
         x="220.44482"
         style="font-size:6px;line-height:1.1;text-align:center;text-anchor:middle">Intersection</tspan><tspan
         y="81.236847"
         x="220.44482"
         id="tspan1482"
         sodipodi:role="line"
         style="font-size:6px;line-height:1.1;text-align:center;text-anchor:middle">(Ctrl+*)</tspan></text>
    <text
       id="text1479"
       y="149.98067"
       x="85.409157"
       style="font-style:normal;font-weight:normal;line-height:0%;font-family:'Liberation Sans',Arial,sans-serif;text-align:center;writing-mode:lr-tb;text-anchor:middle;fill:#000000;fill-opacity:1;stroke:none;stroke-width:3pt;stroke-linecap:butt;stroke-linejoin:miter;stroke-opacity:1"
       xml:space="preserve"><tspan
         id="tspan1480"
         sodipodi:role="line"
         y="149.98067"
         x="85.409157"
         style="font-size:6px;line-height:1.1;text-align:center;text-anchor:middle">Exclusion</tspan><tspan
         y="156.11449"
         x="85.409157"
         id="tspan1484"
         sodipodi:role="line"
         style="font-size:6px;line-height:1.1;text-align:center;text-anchor:middle">(Ctrl+^)</tspan></text>
    <text
       id="text2252"
       y="149.98067"
       x="148.76306"
       style="font-style:normal;font-weight:normal;line-height:0%;font-family:'Liberation Sans',Arial,sans-serif;text-align:center;writing-mode:lr-tb;text-anchor:middle;fill:#000000;fill-opacity:1;stroke:none;stroke-width:3pt;stroke-linecap:butt;stroke-linejoin:miter;stroke-opacity:1"
       xml:space="preserve"><tspan
         id="tspan1820"
         sodipodi:role="line"
         y="149.98067"
         x="148.76306"
         style="font-size:6px;line-height:1.1;text-align:center;text-anchor:middle">Division</tspan><tspan
         y="156.11449"
         x="148.76306"
         id="tspan1822"
         sodipodi:role="line"
         style="font-size:6px;line-height:1.1;text-align:center;text-anchor:middle">(Ctrl+/)</tspan></text>
    <text
       id="text1828"
       y="149.98067"
       x="214.10063"
       style="font-style:normal;font-weight:normal;line-height:0%;font-family:'Liberation Sans',Arial,sans-serif;text-align:center;writing-mode:lr-tb;text-anchor:middle;fill:#000000;fill-opacity:1;stroke:none;stroke-width:3pt;stroke-linecap:butt;stroke-linejoin:miter;stroke-opacity:1"
       xml:space="preserve"><tspan
         id="tspan1829"
         sodipodi:role="line"
         y="149.98067"
         x="214.10063"
         style="font-size:6px;line-height:1.1;text-align:center;text-anchor:middle">Cut Path</tspan><tspan
         y="156.11449"
         x="214.10063"
         id="tspan1831"
         sodipodi:role="line"
         style="font-size:6px;line-height:1.1;text-align:center;text-anchor:middle">(Ctrl+Alt+/)</tspan></text>
    <rect
       y="12.862536"
       x="130.69307"
       height="27.397606"
       width="37.561234"
       id="rect1449"
       style="font-size:12px;fill:#0000ff;fill-opacity:0.75;fill-rule:evenodd;stroke:#000000;stroke-width:1pt" />
    <ellipse
       ry="15.687339"
       rx="15.245441"
       cy="41.367599"
       cx="158.75348"
       id="path1450"
       style="font-size:12px;fill:#ff0000;fill-opacity:0.75;fill-rule:evenodd;stroke:#000000;stroke-width:1pt" />
    <path
       id="path1459"
       d="m 66.918815,90.828 v 27.375 h 12.937501 c -0.02672,0.3793 -0.125,0.7387 -0.125,1.125 0,8.6594 6.834518,15.6875 15.250007,15.6875 8.415487,0 15.250017,-7.0281 15.250017,-15.6875 0,-4.9389 -2.27941,-9.3113 -5.75001,-12.1875 V 90.828 Z"
       style="font-size:12px;fill:#0000ff;fill-opacity:0.75;fill-rule:evenodd;stroke:#000000;stroke-width:1pt"
       inkscape:connector-curvature="0" />
    <path
       id="path1460"
       d="m 130.69296,90.828 v 27.375 h 12.9375 c 0.57218,-8.1239 7.08491,-14.5625 15.125,-14.5625 3.61093,1e-4 6.8872,1.3385 9.5,3.5 V 90.828 Z"
       style="font-size:12px;fill:#0000ff;fill-opacity:0.75;fill-rule:evenodd;stroke:#000000;stroke-width:1pt"
       inkscape:connector-curvature="0" />
    <path
       id="path1461"
       d="m 222.52958,103.6405 c -8.04009,0 -14.55282,6.4386 -15.125,14.5625 h 24.625 v -11.0625 c -2.6128,-2.1615 -5.88907,-3.4999 -9.5,-3.5 z"
       style="font-size:12px;fill:#0000ff;fill-opacity:0.75;fill-rule:evenodd;stroke:#000000;stroke-width:1pt"
       inkscape:connector-curvature="0" />
    <path
       id="path1462"
       d="m 66.902597,165.7046 v 27.375 h 12.9375 c 0.57218,-8.1239 7.084911,-14.5625 15.125006,-14.5625 3.61093,1e-4 6.887197,1.3385 9.499997,3.5 v -16.3125 z m 37.562503,16.3125 v 11.0625 H 79.840097 c -0.02671,0.3793 -0.125,0.7387 -0.125,1.125 0,8.6594 6.83453,15.6875 15.250006,15.6875 8.415477,0 15.250007,-7.0281 15.250007,-15.6875 0,-4.9438 -2.27353,-9.3115 -5.75001,-12.1875 z"
       style="font-size:12px;fill:#0000ff;fill-opacity:0.75;fill-rule:evenodd;stroke:#000000;stroke-width:1pt"
       inkscape:connector-curvature="0" />
    <path
       id="path1817"
       d="m 130.70752,165.7375 v 27.375 h 12.9375 c 0.0481,-0.6835 0.0568,-1.3746 0.1875,-2.0312 0.20319,-1.0209 0.4891,-2.0304 0.875,-2.9688 0.3859,-0.9383 0.85813,-1.8216 1.40625,-2.6562 0.54812,-0.8346 1.18514,-1.6027 1.875,-2.3125 0.68985,-0.7098 1.43889,-1.3735 2.25,-1.9375 0.8111,-0.564 1.68188,-1.0404 2.59375,-1.4375 0.91187,-0.3971 1.8516,-0.6972 2.84375,-0.9063 0.99214,-0.209 2.01056,-0.3124 3.0625,-0.3124 1.05193,0 2.1016,0.1034 3.09375,0.3124 0.99214,0.2091 1.93188,0.5092 2.84375,0.9063 0.91187,0.3971 1.78264,0.8735 2.59375,1.4375 0.35093,0.244 0.63943,0.5713 0.96875,0.8438 v -16.3126 z"
       style="font-size:12px;fill:#0000ff;fill-opacity:0.75;fill-rule:evenodd;stroke:#000000;stroke-width:1pt"
       inkscape:connector-curvature="0" />
    <path
       id="path1818"
       d="m 168.23877,182.0501 c -0.32932,-0.2725 -0.61782,-0.5998 -0.96875,-0.8438 -0.81111,-0.564 -1.68188,-1.0404 -2.59375,-1.4375 -0.91187,-0.3971 -1.85161,-0.6972 -2.84375,-0.9063 -0.99215,-0.209 -2.04182,-0.3124 -3.09375,-0.3124 -1.05194,0 -2.07036,0.1034 -3.0625,0.3124 -0.99215,0.2091 -1.93188,0.5092 -2.84375,0.9063 -0.91187,0.3971 -1.78265,0.8735 -2.59375,1.4375 -0.81111,0.564 -1.56015,1.2277 -2.25,1.9375 -0.68986,0.7098 -1.32688,1.4779 -1.875,2.3125 -0.54812,0.8346 -1.02035,1.7179 -1.40625,2.6562 -0.3859,0.9384 -0.67181,1.9479 -0.875,2.9688 -0.13068,0.6566 -0.13936,1.3477 -0.1875,2.0312 h 24.59375 z"
       style="font-size:12px;fill:#0000ff;fill-opacity:0.75;fill-rule:evenodd;stroke:#000000;stroke-width:1pt"
       inkscape:connector-curvature="0" />
    <path
       id="path1826"
       d="M 208.47323,194.7489 H 233.0974 V 183.6586"
       style="font-size:12px;fill:none;fill-opacity:0.75;fill-rule:evenodd;stroke:#000000;stroke-width:1pt"
       inkscape:connector-curvature="0" />
    <path
       id="path1827"
       d="m 232.03387,182.2405 v -16.3074 h -37.56123 v 0 27.3977 h 12.93706"
       style="font-size:12px;fill:none;fill-opacity:0.75;fill-rule:evenodd;stroke:#000000;stroke-width:1pt"
       inkscape:connector-curvature="0" />
  </g>
</svg>
